{
    "version": "https://jsonfeed.org/version/1",
    "title": "Darkweb Detail",
    "description": "",
    "home_page_url": "https://f20150220.gitlab.io/Detail",
    "feed_url": "https://f20150220.gitlab.io/Detail/feed.json",
    "user_comment": "",
    "author": {
        "name": "Sai Vivek Peddi"
    },
    "items": [
        {
            "id": "https://f20150220.gitlab.io/Detail/currencies-and-finances-of-darkweb.html",
            "url": "https://f20150220.gitlab.io/Detail/currencies-and-finances-of-darkweb.html",
            "title": "Currencies and Finances of Darkweb",
            "summary": "Majority of the transactions on Dark Web black markets are done using&hellip;",
            "content_html": "<p><span style=\"font-weight: 400;\">Majority of the transactions on Dark Web black markets are done using Cryptocurrencies. These use blockchain technology and provide a great deal of anonymity to their users. Here are a few of them:</span></p>\n<p><img src=\"https://f20150220.gitlab.io/Detail/media/posts/3/Currencies.png\" alt=\"\" width=\"1280\" height=\"683\"></p>\n<p><strong>Bitcoin</strong><span style=\"font-weight: 400;\">: It is an open source anonymous digital currency and a peer to peer payment network used for almost all transactions on Dark web.</span></p>\n<p><strong>Litecoin:</strong><span style=\"font-weight: 400;\"> Very similar to Bitcoin, the major difference in hashcash technologies they use.</span></p>\n<p><strong>Monero:</strong><span style=\"font-weight: 400;\"> A latest and more privacy-focussed cryptocurrency.</span></p>\n<p>Just to understand the size of economy on Darkweb let me share the story of Silk Road (The most debated site of Darkweb)</p>\n<h2>The Story</h2>\n<p><span style=\"font-weight: 400;\">From its inception, Tor had gained a huge speculation all across the world. People started to use it for surfing the surface web anonymously. Later on due to the anonymity, criminal masterminds started to use it various illegal activities. </span></p>\n<p><span style=\"font-weight: 400;\">One such example is the Silk Road, an online dark web marketplace for various products like drugs, guns etc…, which was busted by FBI in 2013 and its known designer Ross Ulbricht (alias DPR) was arrested. Later on in the further investigation led by FBI revealed that the total amount of business which happened on Silk Road was close to $82M. This one news caught the world off guard. All the news personal started speculating the Dark web topic. Later on everyone discovered the true potential of criminal effects on the existing society and this lead the researchers across the world to take a look at this dark cosmos.</span></p>\n<p><span style=\"font-weight: 400;\">Silk Road is the perfect example on how a criminal mastermind can exploit the online resources to create a notorious criminal network. Let's see how this used function. In the initial days of inception of this darknet market place, the admin DPR used to put an auction among the same products distributed by various vendors and he used to put the best product along with the equivalent bitcoin price on the website for the customers to purchase it. A customer can add these product to his cart and while checking out he/she used to pay the exact amount of the bitcoins. These bitcoins were held by the admin in escrow till the product is delivered to the customer. Once the customer receives the product, the admin takes his share and he pays the rest to the vendors who sold the product.</span></p>\n<p><span style=\"font-weight: 400;\">This entire story of Silk Road is the intelligent play of combining various technologies like Tor, Cryptocurrency for building a mysterious marketplace for selling illicit material. </span></p>\n<p><span style=\"font-weight: 400;\">Ross Ulbricht was later on sentenced a life imprisonment for his contribution to the notorious criminal network. </span></p>\n<p>Various magazines like WIRED, The Economist published various articles on how the finances used to flow on these darknet markets and the amount of illegal activities performed on these online dark web markets.</p>\n<p>Here are the stats by The Economist on the revenue generated on Silk Road.</p>\n<p><img src=\"https://f20150220.gitlab.io/Detail/media/posts/3/SilkRoad.png\" alt=\"\" width=\"401\" height=\"512\"></p>\n<p>Looking at the magnitude of the economy and illicit content, people started understanding the ripple effects it can create on the existing socitey.</p>\n<p>Today there are hundreds of research papers published for the sole purpose of combating these cyber criminals and to generate rich cyber threat intelligence.</p>\n<p> </p>",
            "image": "https://f20150220.gitlab.io/Detail/media/posts/3/cryptocoins.jpg",
            "author": {
                "name": "Sai Vivek Peddi"
            },
            "tags": [
            ],
            "date_published": "2018-11-20T13:57:08+05:30",
            "date_modified": "2018-11-20T14:15:54+05:30"
        },
        {
            "id": "https://f20150220.gitlab.io/Detail/design-of-darkweb.html",
            "url": "https://f20150220.gitlab.io/Detail/design-of-darkweb.html",
            "title": "Design of Darkweb",
            "summary": "In this blog lets understand the some core concepts involved in the&hellip;",
            "content_html": "<p>In this blog lets understand the some core concepts involved in the creation of this mythological world.</p>\n<h2><strong>Definitions</strong></h2>\n<p><span style=\"font-weight: 400;\">First let's understand the difference between Dark web and Dark net as they are used quite interchangeably. In Fact there is a core idea to distinguish these by their very nature. Let’s understand this first.</span></p>\n<p><strong>Dark net</strong><strong>: </strong></p>\n<p><span style=\"font-weight: 400;\">it is an encrypted network built on top of existing internet and requires special softwares or tools to access it as these uses non standard communication protocols</span><span style=\"font-weight: 400;\">.</span></p>\n<p><strong>Dark web:</strong></p>\n<p><span style=\"font-size: inherit;\">It is the World Wide Web of all the Darknets.(Overlay Networks)</span></p>\n<h2><strong>Popular Darknets</strong></h2>\n<p><span style=\"font-weight: 400;\">Any Darknets most valuable aspect is keeping the anonymity of its users. Now lets understand how various darknets are able to do this and let's understand the way how each and every darknet is structurally different from every other dark net.</span></p>\n<p><img class=\"align-center\" src=\"https://f20150220.gitlab.io/Detail/media/posts/2/Various-Darknets.png\" alt=\"\" width=\"542\" height=\"874\"></p>\n<p><strong>Tor:</strong></p>\n<p><span style=\"font-weight: 400;\">Tor(The Onion Router) is possibly the most popular darknet available till date. Initially released in 1993 by the U.S. Naval research laboratory for protecting the identity of their officers, to be able to do surveillance anonymously and  to communicate securely.</span></p>\n<p>But after few years of extensive usage of the network, they found the true sense of anonymity was lost as the network only had the officers from different departments of the government, like NSA, CIA etc..,  but they all are working for the same government and they felt that it's like a frog in a well situation. So later on the U.S government decided to open source the tool and its released to the public in 2003.</p>\n<p><span style=\"font-weight: 400;\">From its inception, Tor had gained a huge speculation all across the world. People started to use it for surfing the surface web anonymously. Later on due to the anonymity, criminal masterminds started to use it various illegal activities.</span></p>\n<p>Now lets see how to access and how the anonymity is achieved in a Tor netowork.</p>\n<p><img src=\"https://f20150220.gitlab.io/Detail/media/posts/2/Tor_explaination.png\" alt=\"\" width=\"650\" height=\"1000\">]</p>\n<p><span style=\"font-weight: 400;\">Tor refers to both the software you install to run Tor and a network of computers that manages Tor connections. Tor’s users connect to websites through a series of virtual tunnels rather than making a direct connection, thus allowing both organizations and individuals to share information over public networks without compromising their privacy.</span></p>\n<p>Users route their web traffic through other users computers such that the traffic cannot be traced to the original user. Tor essentially establishes layers (like layers of an onion) and routes traffic through those layers to conceal users identities. To get from layer to layer, Tor has established relays on computers around the world through which information passes. Information is encrypted between relays, and all Tor traffic passes through at least three relays before it reaches its destination.</p>\n<p><span style=\"font-weight: 400;\">The final relay is called the exit relay, and the IP address of this relay is viewed as the source of the Tor traffic. When using Tor software, users’ IP addresses remain hidden. As such, it appears that the connection to any given website is coming from the IP address of a Tor exit relay, which can be anywhere in the world.</span></p>\n<p><img class=\"align-center\" src=\"https://f20150220.gitlab.io/Detail/media/posts/2/InfoflowTor.png\" alt=\"\" width=\"512\" height=\"199\"></p>\n<p><span style=\"font-weight: 400;\">All the websites hosted on this anonymous network are ended by a .onion domain name. Tor also gives free server space for hosting a website on its network. </span></p>\n<p><span style=\"font-weight: 400;\">Even though tor stood as a platform for a lot of illegal activities, there are millions of user who use it just for the sake of anonymity while surfing online and for keep themselves protected form the unwanted surveillance. Even today 94 percent of the Tor projects were funded by the US government.</span></p>\n<h1> </h1>\n<p><strong>I2P:</strong></p>\n<p><span style=\"font-weight: 400;\">The Invisible Internet Project (I2P) is yet another anonymous network similar to Tor. It allows for censorship resistant peer to peer communication. Anonymous connections are achieved by encrypting the user’s traffic(end - end encryption), and sending it through a volunteer run network of roughly 55,000 computers distributed around the world.</span></p>\n<p><span style=\"font-weight: 400;\">The software that implements this anonymous network layer is called an I2P router and the a computer running this software is known as I2P node. I2P is a free and open source, and is published under multiple licenses.</span></p>\n<p>Epsites are the websites that are hosted anonymously within the I2P network. These sites end in .i2p. These site have these names analogous to the .onion in the Tor network</p>\n<p><img class=\"align-center\" src=\"https://f20150220.gitlab.io/Detail/media/posts/2/i2p_flow.png\" alt=\"\" width=\"512\" height=\"384\"></p>\n<p><strong>Freenet:</strong></p>\n<p><span style=\"font-weight: 400;\">Free net is an another popular (friend-to-friend) darknet run as a opennet (peer nodes are discovered automatically). </span></p>\n<p><strong>Retroshare:</strong></p>\n<p><span style=\"font-weight: 400;\">RetroShare can be run as a darknet (friend-to-friend) by default to perform anonymous file transfers if Distributed Hash Tables and Discovery features are disabled. </span><span style=\"font-weight: 400;\"> </span></p>\n<p><span style=\"font-weight: 400;\">There are a lot of other darknets available in the world of this gigantic structure of world wide web. Each and every network has its own structural differences from the rest.</span></p>",
            "image": "https://f20150220.gitlab.io/Detail/media/posts/2/Design_of_Darweb.jpg",
            "author": {
                "name": "Sai Vivek Peddi"
            },
            "tags": [
            ],
            "date_published": "2018-11-20T13:50:50+05:30",
            "date_modified": "2018-11-20T13:57:33+05:30"
        },
        {
            "id": "https://f20150220.gitlab.io/Detail/darkweb-in-detail.html",
            "url": "https://f20150220.gitlab.io/Detail/darkweb-in-detail.html",
            "title": "Intro to Darkweb ",
            "summary": "The Internet as we know is not the wonderland where everything is&hellip;",
            "content_html": "<p><span style=\"font-weight: 400;\">The Internet as we know is not the wonderland where everything is organized, legit and ethical. Deep down there lies an entire different world which we don't come across in our daily life. Today let's explore the true colors of this mystical universe.</span></p>\n<p>First let's understand this mystical cosmos by taking a deep dive into this vast ocean called Internet</p>\n<h2><strong>Topology of Internet</strong></h2>\n<p><span style=\"font-weight: 400;\">The internet is analogous to a very deep ocean. When we use a search engine like google the results we get are similar to dragging a net on the surface of water. Just like we are unable to see what’s underneath the surface water in the deep ocean, there is still a lot of content which cannot be accessed through traditional search. So, to differentiate from what we see and what we don't, Internet is classified into three layers.</span></p>\n<h3><strong>Layers of Internet</strong></h3>\n<p><span style=\"font-weight: 400;\">This is the famous Iceberg Classification which is used for differentiating the content floating on the internet.</span></p>\n<p><img class=\"align-center\" src=\"https://f20150220.gitlab.io/Detail/media/posts/1/Layers.png\" alt=\"Layers of Internet\" width=\"512\" height=\"436\"></p>\n<p><strong>Surface Web:</strong><span style=\"font-weight: 400;\"> This is where  the content indexed by traditional search engines lies.</span></p>\n<p><strong>Deep Web:</strong><span style=\"font-weight: 400;\"> This is where the content not indexed by traditional search engines lies.</span></p>\n<p><strong>Dark Web:</strong><span style=\"font-weight: 400;\"> This is where content is hidden intentionally and we need a special software to access it.</span></p>\n<h2><strong>Darkweb In Reality</strong></h2>\n<p><span style=\"font-weight: 400;\">Anonymity being the key feature of Dark Web. It can be used for legit as well as criminal and malicious activities. As far as criminal activities are concerned here are the stats of Global Drug Survey which shows trends of Drug market on Dark web across Europe for three Years. </span></p>\n<p><img src=\"https://f20150220.gitlab.io/Detail/media/posts/1/Reality.png\" alt=\"Trends on Darkweb\" width=\"942\" height=\"492\"></p>\n<p> </p>\n<p><span style=\"font-weight: 400;\">The graph clearly depicts the increase of drug trade on Dark web marketplaces over the years. Even though the graph is drawn for the statistics take over the countries of Europe, similar trends are observed all across the world.</span></p>",
            "image": "https://f20150220.gitlab.io/Detail/media/posts/1/Intro2.jpg",
            "author": {
                "name": "Sai Vivek Peddi"
            },
            "tags": [
            ],
            "date_published": "2018-11-20T11:58:30+05:30",
            "date_modified": "2018-11-20T13:58:40+05:30"
        }
    ]
}
